{
  "id": "tor-2e-compendium-ptbr",
  "title": "TOR2E - Compêndio não oficial - Versão brasileira",
  "description": "TOR2E - Compêndio não oficial - Versão brasileira",
  "version": "12.1.1",
  "authors": [
    {
      "name": "Ghorin",
      "url": "ostolinde.free.fr",
      "discord": "ghorin"
    }
  ],
  "compatibility": {
    "minimum": "11",
    "verified": "12.331",
    "maximum": "12"
  },
  "relationships": {
    "systems": [
      {
        "id": "tor2e",
        "type": "system",
        "manifest": "https://gitlab.com/herve.darritchon/foundryvtt-tor2e/-/raw/main/src/system.json",
        "compatibility": {
          "verified": "3.4"
        }
      }
    ]
  },
  "packs": [
    {
      "name": "tor2e-caracs-ptbr",
      "label": "Características",
      "banner": "modules/tor-2e-compendium-ptbr/images/caracteristiques_fond_pack_ptbr_drapeau.jpg",
      "path": "packs/tor2e-caracs-ptbr",
      "type": "Item",
      "system": "tor2e",
      "private": false,
      "flags": {}
    },
    {
      "name": "tor2e-equipment-ptbr",
      "label": "Equipamento",
      "banner": "modules/tor-2e-compendium-ptbr/images/equipement_fond_pack_ptbr_drapeau.jpg",
      "path": "packs/tor2e-equipment-ptbr",
      "type": "Item",
      "system": "tor2e",
      "private": false,
      "flags": {}
    },
    {
      "name": "tor2e-adversaries-ptbr",
      "label": "Oponentes",
      "banner": "modules/tor-2e-compendium-ptbr/images/adversaires_fond_pack_ptbr_drapeau.jpg",
      "path": "packs/tor2e-adversaries-ptbr",
      "type": "Actor",
      "system": "tor2e",
      "private": false,
      "flags": {}
    }
  ],
  "url": "https://gitlab.com/ghorin/tor-2e-compendium-ptbr",
  "manifest": "https://gitlab.com/ghorin/tor-2e-compendium-ptbr/-/raw/main/module.json",
  "download": "https://gitlab.com/ghorin/tor-2e-compendium-ptbr/-/archive/12.1.1/tor-2e-compendium-ptbr-12.1.1.zip"
}
